plotly
…
library(ggplot2)

data("rest_inspec")

rest_inspec <- rest_inspec %>%
  filter(!is.na(score) & 
         boro %in% c("Manhattan", "BRONX", "BROOKLYN") &
         cuisine_description %in% c("Mexican", "Chinese", "Japanese", "Italian", "Jewish/Kosher", "Russian", "American", "Middle Eastern", "Spanish", "Greek", "Thai")) %>%
  select(boro,cuisine_description, dba, critical_flag, score, grade)

print(rest_inspec)

## # A tibble: 64,594 × 6
##    boro  cuisine_description dba                       critical_flag score grade
##    <chr> <chr>               <chr>                     <chr>         <int> <chr>
##  1 BRONX Chinese             NEW LIN'S GARDEN NY       Critical         22 <NA> 
##  2 BRONX Chinese             KIM HUA                   Not Critical      9 A    
##  3 BRONX American            SYMPHONY DINER            Not Critical     22 <NA> 
##  4 BRONX Mexican             LOS HERMANOS SALAZAR RES… Critical          6 A    
##  5 BRONX American            GLACKEN'S BAR             Not Critical     23 <NA> 
##  6 BRONX American            NEW YORK YANKEES MVP CLUB Not Applicab…     0 A    
##  7 BRONX American            HIGHLANDERS (STAND 318)   Critical          7 A    
##  8 BRONX American            STADIUM PIZZA BAR RESTAU… Not Applicab…     0 A    
##  9 BRONX American            YANKEE TAVERN             Not Critical     13 A    
## 10 BRONX American            NATHAN'S (STAND 312)      Not Critical     10 A    
## # ℹ 64,584 more rows
…
